fullAdder4/wave.vcd
$date
     Apr 14, 2015       23:58:52
$end

$version
 SystemC 2.3.1-Accellera --- Apr 14 2015 18:21:21
$end

$timescale
     1 ps
$end

$scope module SystemC $end
$var wire    1  aaaaa  clock       $end
$var wire    1  aaaab  X_in       $end
$var wire    1  aaaac  Y_in       $end
$var wire    1  aaaad  Ci_in       $end
$var wire    1  aaaae  S_out       $end
$var wire    1  aaaaf  C_out       $end
$upscope $end
$enddefinitions  $end

$comment
All initial values are dumped below at time 0 sec = 0 timescale units.
$end

$dumpvars
1aaaaa
Xaaaab
Xaaaac
Xaaaad
Xaaaae
Xaaaaf
$end

#5000
0aaaaa
0aaaab
0aaaac
0aaaad
0aaaae
0aaaaf

#10000
1aaaaa

#15000
0aaaaa
1aaaab
1aaaae

#20000
1aaaaa

#25000
0aaaaa
1aaaad
0aaaae
1aaaaf

#30000
1aaaaa

#35000
0aaaaa
0aaaab
1aaaae
0aaaaf

#40000
1aaaaa

#45000
0aaaaa
1aaaab
1aaaac
1aaaaf

#50000
1aaaaa

#55000
0aaaaa
0aaaab
0aaaac
0aaaad
0aaaae
0aaaaf

#60000
1aaaaa

#65000
0aaaaa
1aaaab
1aaaae

#70000
1aaaaa

#75000
0aaaaa
1aaaad
0aaaae
1aaaaf

